wave.vcd
$date
	Sun May  3 23:39:45 2026
$end

$version
	Synopsys VCS version T-2022.06-SP2_Full64
$end

$timescale
	1ps
$end

$comment Csum: 1 66dae7cecb7a347e $end


$scope module top $end
$var reg 1 ! clk $end

$scope module mem_bus $end
$var reg 1 " clk $end
$var reg 1 # write $end
$var reg 1 $ read $end
$var reg 8 % data_in [7:0] $end
$var reg 16 & address [15:0] $end
$var reg 9 ' data_out [8:0] $end
$upscope $end


$scope module dut $end

$scope begin unnamed$$_vcs_0 $end
$upscope $end

$upscope $end

$upscope $end

$enddefinitions $end

#0
$dumpvars
0!
b000000000 '
b0000000000000000 &
b00000000 %
0"
0$
0#
$end
#50000
1!
1"
#100000
0!
0"
#150000
1!
1"
#151000
b0011000110101001 &
b00101000 %
1#
#200000
0!
0"
#250000
1!
1"
#251000
0#
#300000
0!
0"
#350000
1!
1"
#351000
1$
#400000
0!
0"
#450000
1!
1"
b000101000 '
#451000
0$
#500000
0!
0"
#550000
1!
1"
#551000
b1011001111111001 &
b01000111 %
1#
#600000
0!
0"
#650000
1!
1"
#651000
0#
#700000
0!
0"
#750000
1!
1"
#751000
1$
#800000
0!
0"
#850000
1!
1"
b001000111 '
#851000
0$
#900000
0!
0"
#950000
1!
1"
#951000
b1110110000101011 &
b11000101 %
1#
#1000000
0!
0"
#1050000
1!
1"
#1051000
0#
#1100000
0!
0"
#1150000
1!
1"
#1151000
1$
#1200000
0!
0"
#1250000
1!
1"
b011000101 '
#1251000
0$
#1300000
0!
0"
#1350000
1!
1"
#1351000
b1010110000011001 &
b00000000 %
1#
#1400000
0!
0"
#1450000
1!
1"
#1451000
0#
#1500000
0!
0"
#1550000
1!
1"
#1551000
1$
#1600000
0!
0"
#1650000
1!
1"
b000000000 '
#1651000
0$
#1700000
0!
0"
#1750000
1!
1"
#1751000
b1000110110110100 &
b11101010 %
1#
#1800000
0!
0"
#1850000
1!
1"
#1851000
0#
#1900000
0!
0"
#1950000
1!
1"
#1951000
1$
#2000000
0!
0"
#2050000
1!
1"
b111101010 '
#2051000
0$
#2100000
0!
0"
#2150000
1!
1"
#2151000
b0100011111110001 &
b00011011 %
1#
#2200000
0!
0"
#2250000
1!
1"
#2251000
0#
#2300000
0!
0"
#2350000
1!
1"
#2351000
1$
#2400000
0!
0"
#2450000
1!
1"
b000011011 '
#2451000
0$
#2500000
0!
0"
#2550000
1!
1"
#2551000
b0111100101111111 &
b11111110 %
1#
#2600000
0!
0"
#2650000
1!
1"
#2651000
0#
#2700000
0!
0"
#2750000
1!
1"
#2751000
1$
#2800000
0!
0"
#2850000
1!
1"
b111111110 '
#2851000
0$
#2900000
0!
0"
#2950000
1!
1"
#2951000
b0010101010111101 &
b11110000 %
1#
#3000000
0!
0"
#3050000
1!
1"
#3051000
0#
#3100000
0!
0"
#3150000
1!
1"
#3151000
1$
#3200000
0!
0"
#3250000
1!
1"
b011110000 '
#3251000
0$
#3300000
0!
0"
#3350000
1!
1"
#3351000
b0010000110101010 &
b01000011 %
1#
#3400000
0!
0"
#3450000
1!
1"
#3451000
0#
#3500000
0!
0"
#3550000
1!
1"
#3551000
1$
#3600000
0!
0"
#3650000
1!
1"
b101000011 '
#3651000
0$
#3700000
0!
0"
#3750000
1!
1"
#3751000
b1111011111000010 &
b00001100 %
1#
#3800000
0!
0"
#3850000
1!
1"
#3851000
0#
#3900000
0!
0"
#3950000
1!
1"
#3951000
1$
#4000000
0!
0"
#4050000
1!
1"
b000001100 '
#4051000
0$
